…
``` r
boot_straps = 
  tibble(strap_number = 1:100) |> 
  mutate(
    strap_sample = map(strap_number, \(i) boot_sample(sim_df_nonconst))
  )

boot_straps |> 
  pull(strap_sample) |> 
  nth(2) |> 
  arrange(x)
```

    ## # A tibble: 250 × 3
    ##         x  error      y
    ##     <dbl>  <dbl>  <dbl>
    ##  1 -1.89   1.62  -2.04 
    ##  2 -1.89   1.62  -2.04 
    ##  3 -1.29   1.40  -0.454
    ##  4 -1.29   1.40  -0.454
    ##  5 -1.00   0.832 -0.169
    ##  6 -0.914 -0.908 -1.65 
    ##  7 -0.805  0.292 -0.123
    ##  8 -0.665 -0.544 -0.539
    ##  9 -0.665 -0.544 -0.539
    ## 10 -0.665 -0.544 -0.539
    ## # ℹ 240 more rows
…
``` r
boot_results = 
  boot_straps |> 
  mutate(
    models = map(strap_sample, \(df) lm(y ~ x, data = df)),
    results = map(models, broom::tidy)
  ) |> 
  select(strap_number, results) |> 
  unnest(results)

boot_results
```

    ## # A tibble: 200 × 6
    ##    strap_number term        estimate std.error statistic   p.value
    ##           <int> <chr>          <dbl>     <dbl>     <dbl>     <dbl>
    ##  1            1 (Intercept)     1.89    0.118       16.0 4.78e- 40
    ##  2            1 x               3.12    0.0843      37.0 5.32e-103
    ##  3            2 (Intercept)     2.06    0.0976      21.1 3.71e- 57
    ##  4            2 x               2.97    0.0690      43.1 2.89e-117
    ##  5            3 (Intercept)     2.04    0.102       20.0 9.03e- 54
    ##  6            3 x               3.03    0.0699      43.3 1.43e-117
    ##  7            4 (Intercept)     1.90    0.113       16.8 1.01e- 42
    ##  8            4 x               3.18    0.0772      41.2 7.18e-113
    ##  9            5 (Intercept)     1.95    0.112       17.3 1.22e- 44
    ## 10            5 x               2.97    0.0787      37.8 6.61e-105
    ## # ℹ 190 more rows
…
``` r
boot_straps_const = 
  tibble(strap_number = 1:100) |> 
  mutate(
    strap_sample = map(strap_number, \(i) boot_sample(sim_df_const))
  )

boot_straps_const |> 
  pull(strap_sample) |> 
  nth(2) |> 
  arrange(x)
```

    ## # A tibble: 250 × 3
    ##         x   error      y
    ##     <dbl>   <dbl>  <dbl>
    ##  1 -1.29  -1.45   -3.31 
    ##  2 -1.21   0.857  -0.787
    ##  3 -1.21   0.857  -0.787
    ##  4 -1.21   0.857  -0.787
    ##  5 -0.914  1.32    0.581
    ##  6 -0.733 -0.813  -1.01 
    ##  7 -0.536 -0.0565  0.334
    ##  8 -0.524  1.36    1.79 
    ##  9 -0.518  0.164   0.609
    ## 10 -0.518  0.164   0.609
    ## # ℹ 240 more rows

``` r
boot_results_const = 
  boot_straps_const |> 
  mutate(
    models = map(strap_sample, \(df) lm(y ~ x, data = df)),
    results = map(models, broom::tidy)
  ) |> 
  select(strap_number, results) |> 
  unnest(results)

boot_results_const
```

    ## # A tibble: 200 × 6
    ##    strap_number term        estimate std.error statistic   p.value
    ##           <int> <chr>          <dbl>     <dbl>     <dbl>     <dbl>
    ##  1            1 (Intercept)     1.95    0.0982      19.8 5.28e- 53
    ##  2            1 x               3.01    0.0719      41.9 1.40e-114
    ##  3            2 (Intercept)     2.16    0.0923      23.4 1.11e- 64
    ##  4            2 x               3.03    0.0651      46.5 1.61e-124
    ##  5            3 (Intercept)     1.88    0.0959      19.6 2.01e- 52
    ##  6            3 x               3.07    0.0733      41.9 1.36e-114
    ##  7            4 (Intercept)     1.90    0.105       18.0 5.87e- 47
    ##  8            4 x               3.04    0.0770      39.4 8.91e-109
    ##  9            5 (Intercept)     2.26    0.0931      24.3 1.26e- 67
    ## 10            5 x               2.91    0.0657      44.4 6.46e-120
    ## # ℹ 190 more rows
…
