…
Good thing we tested- our best model switched from being wiggly to
smooth.

## Now let’s use modelr for CV

``` r
cv_df = 
  nonlin_df |> 
  crossv_mc(n = 100)

cv_df
```

    ## # A tibble: 100 × 3
    ##    train               test                .id  
    ##    <list>              <list>              <chr>
    ##  1 <resample [79 x 3]> <resample [21 x 3]> 001  
    ##  2 <resample [79 x 3]> <resample [21 x 3]> 002  
    ##  3 <resample [79 x 3]> <resample [21 x 3]> 003  
    ##  4 <resample [79 x 3]> <resample [21 x 3]> 004  
    ##  5 <resample [79 x 3]> <resample [21 x 3]> 005  
    ##  6 <resample [79 x 3]> <resample [21 x 3]> 006  
    ##  7 <resample [79 x 3]> <resample [21 x 3]> 007  
    ##  8 <resample [79 x 3]> <resample [21 x 3]> 008  
    ##  9 <resample [79 x 3]> <resample [21 x 3]> 009  
    ## 10 <resample [79 x 3]> <resample [21 x 3]> 010  
    ## # ℹ 90 more rows

This made 100 different trainina and test splits! But it’s not a true
tibble.

``` r
cv_df |> 
  pull(train) |> 
  nth(1) |> 
  as_tibble()
```

    ## # A tibble: 79 × 3
    ##       id      x       y
    ##    <int>  <dbl>   <dbl>
    ##  1     1 0.266   1.11  
    ##  2     2 0.372   0.764 
    ##  3     3 0.573   0.358 
    ##  4     4 0.908  -3.04  
    ##  5     6 0.898  -1.99  
    ##  6     7 0.945  -3.27  
    ##  7     8 0.661  -0.615 
    ##  8     9 0.629   0.0878
    ##  9    10 0.0618  0.392 
    ## 10    11 0.206   1.63  
    ## # ℹ 69 more rows

``` r
cv_df = 
  nonlin_df |> 
  crossv_mc(n = 100) |> 
  mutate(train = map(train, as_tibble),
         test = map(test, as_tibble))

cv_df
```

    ## # A tibble: 100 × 3
    ##    train             test              .id  
    ##    <list>            <list>            <chr>
    ##  1 <tibble [79 × 3]> <tibble [21 × 3]> 001  
    ##  2 <tibble [79 × 3]> <tibble [21 × 3]> 002  
    ##  3 <tibble [79 × 3]> <tibble [21 × 3]> 003  
    ##  4 <tibble [79 × 3]> <tibble [21 × 3]> 004  
    ##  5 <tibble [79 × 3]> <tibble [21 × 3]> 005  
    ##  6 <tibble [79 × 3]> <tibble [21 × 3]> 006  
    ##  7 <tibble [79 × 3]> <tibble [21 × 3]> 007  
    ##  8 <tibble [79 × 3]> <tibble [21 × 3]> 008  
    ##  9 <tibble [79 × 3]> <tibble [21 × 3]> 009  
    ## 10 <tibble [79 × 3]> <tibble [21 × 3]> 010  
    ## # ℹ 90 more rows
…
cv_results
```

    ## # A tibble: 100 × 9
    ##    train             test     .id   linear_fit smooth_fit wiggly_fit rmse_linear
    ##    <list>            <list>   <chr> <list>     <list>     <list>           <dbl>
    ##  1 <tibble [79 × 3]> <tibble> 001   <lm>       <gam>      <gam>            0.747
    ##  2 <tibble [79 × 3]> <tibble> 002   <lm>       <gam>      <gam>            0.602
    ##  3 <tibble [79 × 3]> <tibble> 003   <lm>       <gam>      <gam>            0.955
    ##  4 <tibble [79 × 3]> <tibble> 004   <lm>       <gam>      <gam>            0.691
    ##  5 <tibble [79 × 3]> <tibble> 005   <lm>       <gam>      <gam>            0.712
    ##  6 <tibble [79 × 3]> <tibble> 006   <lm>       <gam>      <gam>            0.610
    ##  7 <tibble [79 × 3]> <tibble> 007   <lm>       <gam>      <gam>            0.758
    ##  8 <tibble [79 × 3]> <tibble> 008   <lm>       <gam>      <gam>            0.803
    ##  9 <tibble [79 × 3]> <tibble> 009   <lm>       <gam>      <gam>            0.705
    ## 10 <tibble [79 × 3]> <tibble> 010   <lm>       <gam>      <gam>            0.959
    ## # ℹ 90 more rows
    ## # ℹ 2 more variables: rmse_smooth <dbl>, rmse_wiggly <dbl>
…
